[gd_scene load_steps=2 format=2]

[ext_resource path="res://assets/bird.png" type="Texture" id=1]

[node name="Level_0" type="Node2D"]

[node name="Motacilla" type="Node2D" parent="."]

[node name="Sprite" type="Sprite" parent="Motacilla"]
texture = ExtResource( 1 )
