[gd_scene load_steps=4 format=2]

[ext_resource path="res://assets/ground.png" type="Texture" id=1]

[sub_resource type="QuadMesh" id=1]
size = Vector2( 64, 64 )

[sub_resource type="RectangleShape2D" id=2]
extents = Vector2( 32, 12 )

[node name="GroundChunk" type="Node2D"]

[node name="Mesh" type="MeshInstance2D" parent="."]
mesh = SubResource( 1 )
texture = ExtResource( 1 )

[node name="StaticBody2D" type="StaticBody2D" parent="."]

[node name="CollisionShape2D" type="CollisionShape2D" parent="StaticBody2D"]
position = Vector2( 0, -1 )
shape = SubResource( 2 )
